{
  "images" : [
    {
      "idiom" : "universal",
      "filename" : "1158520469_w0_h0_fat_24_red1.jpg",
      "scale" : "1x"
    },
    {
      "idiom" : "universal",
      "scale" : "2x"
    },
    {
      "idiom" : "universal",
      "scale" : "3x"
    }
  ],
  "info" : {
    "version" : 1,
    "author" : "xcode"
  }
}